timestamp_pseudoHD,timestamp_DD,side_HD_pseudoHD,side_HD_DD,GT_side_pseudoHD_DD,GT_side_HD_DD,GT_side_HD_pseudoHD,HD_GT_lat,HD_GT_long,DD_GT_lat,DD_GT_long,DD_prev_lat,DD_prev_long,HD_DD_GT_bearing
5261966,5179563.0,4.9,4.8,0.48,5.0,5.0,33.918975,-84.279019,33.918928,-84.278995,33.918966,-84.278982,"157
"
5262524,5180125.0,4.8,4.9,0.48,5.0,5.0,33.918975,-84.279019,33.918928,-84.278995,33.918966,-84.278982,"157
"
5263100,5180695.0,6.6,4.8,0.48,5.0,5.0,33.918975,-84.279019,33.918928,-84.278995,33.918966,-84.278982,"157
"
5263665,5181250.0,5.9,4.8,0.48,5.0,5.0,33.918975,-84.279019,33.918928,-84.278995,33.918966,-84.278982,"157
"
5264233,5181812.0,4.9,4.7,0.48,5.0,5.0,33.918975,-84.279019,33.918928,-84.278995,33.918966,-84.278982,"157
"
5264797,5182381.0,5.7,5.0,0.48,5.0,5.0,33.918975,-84.279019,33.918928,-84.278995,33.918966,-84.278982,"157
"
5265349,5182954.0,5.6,4.7,0.48,5.0,5.0,33.918975,-84.279019,33.918928,-84.278995,33.918966,-84.278982,"157
"
5265919,5183527.0,5.7,4.5,0.48,5.0,5.0,33.918975,-84.279019,33.918928,-84.278995,33.918966,-84.278982,"157
"
5266490,5184079.0,4.2,4.8,0.48,5.0,5.0,33.918975,-84.279019,33.918928,-84.278995,33.918966,-84.278982,"157
"
5267063,5184628.0,6.2,4.2,0.48,5.0,5.0,33.918975,-84.279019,33.918928,-84.278995,33.918966,-84.278982,"157
"
5267635,5185196.0,6.1,4.9,0.48,5.0,5.0,33.918975,-84.279019,33.918928,-84.278995,33.918966,-84.278982,"157
"
5268207,5185774.0,4.7,4.4,0.48,5.0,5.0,33.918975,-84.279019,33.918928,-84.278995,33.918966,-84.278982,"157
"
5268778,5186348.0,4.9,4.2,0.48,5.0,5.0,33.918975,-84.279019,33.918928,-84.278995,33.918966,-84.278982,"157
"
5269352,5186921.0,4.9,4.2,0.48,5.0,5.0,33.918975,-84.279019,33.918928,-84.278995,33.918966,-84.278982,"157
"
5269895,5187510.0,5.0,4.4,0.48,5.0,5.0,33.918975,-84.279019,33.918928,-84.278995,33.918966,-84.278982,"157
"
5270471,5188084.0,4.8,4.4,0.48,5.0,5.0,33.918975,-84.279019,33.918928,-84.278995,33.918966,-84.278982,"157
"
5271039,5188660.0,4.9,4.2,0.48,5.0,5.0,33.918975,-84.279019,33.918928,-84.278995,33.918966,-84.278982,"157
"
5271616,5189237.0,4.7,4.7,0.48,5.0,5.0,33.918975,-84.279019,33.918928,-84.278995,33.918966,-84.278982,"157
"
5272198,5189812.0,5.1,4.4,0.48,5.0,5.0,33.918975,-84.279019,33.918928,-84.278995,33.918966,-84.278982,"157
"
5272746,5190364.0,4.9,4.2,0.48,5.0,5.0,33.918975,-84.279019,33.918928,-84.278995,33.918966,-84.278982,"157
"
5273387,5191018.0,5.2,4.4,0.48,5.0,5.0,33.918975,-84.279019,33.918928,-84.278995,33.918966,-84.278982,"157
"
5273964,5191565.0,5.1,4.4,0.48,5.0,5.0,33.918975,-84.279019,33.918928,-84.278995,33.918966,-84.278982,"157
"
5274571,5192137.0,5.1,4.2,0.48,5.0,5.0,33.918975,-84.279019,33.918928,-84.278995,33.918966,-84.278982,"157
"
5275135,5192687.0,5.2,4.5,0.48,5.0,5.0,33.918975,-84.279019,33.918928,-84.278995,33.918966,-84.278982,"157
"
5275703,5193310.0,5.6,4.8,0.48,5.0,5.0,33.918975,-84.279019,33.918928,-84.278995,33.918966,-84.278982,"157
"
5276280,5193858.0,4.6,5.0,0.48,5.0,5.0,33.918975,-84.279019,33.918928,-84.278995,33.918966,-84.278982,"157
"
5276854,5194435.0,5.0,4.7,0.48,5.0,5.0,33.918975,-84.279019,33.918928,-84.278995,33.918966,-84.278982,"157
"
5277427,5195014.0,5.1,4.5,0.48,5.0,5.0,33.918975,-84.279019,33.918928,-84.278995,33.918966,-84.278982,"157
"
5278001,5195587.0,5.2,4.7,0.48,5.0,5.0,33.918975,-84.279019,33.918928,-84.278995,33.918966,-84.278982,"157
"
5278574,5196147.0,5.2,4.9,0.48,5.0,5.0,33.918975,-84.279019,33.918928,-84.278995,33.918966,-84.278982,"157
"
5279148,5196718.0,4.9,4.3,0.48,5.0,5.0,33.918975,-84.279019,33.918928,-84.278995,33.918966,-84.278982,"157
"
5279727,5197295.0,4.9,4.4,0.48,5.0,5.0,33.918975,-84.279019,33.918928,-84.278995,33.918966,-84.278982,"157
"
5280872,5197877.0,5.0,4.5,0.48,5.0,5.0,33.918975,-84.279019,33.918928,-84.278995,33.918966,-84.278982,"157
"
5281434,5198454.0,5.2,4.6,0.48,5.0,5.0,33.918975,-84.279019,33.918928,-84.278995,33.918966,-84.278982,"157
"
5281997,5199028.0,5.2,5.0,0.48,5.0,5.0,33.918975,-84.279019,33.918928,-84.278995,33.918966,-84.278982,"157
"
5282567,5199598.0,5.4,4.4,0.48,5.0,5.0,33.918975,-84.279019,33.918928,-84.278995,33.918966,-84.278982,"157
"
5283143,5200175.0,5.4,4.3,0.48,5.0,5.0,33.918975,-84.279019,33.918928,-84.278995,33.918966,-84.278982,"157
"
5283715,5200753.0,5.3,4.4,0.48,5.0,5.0,33.918975,-84.279019,33.918928,-84.278995,33.918966,-84.278982,"157
"
5284286,5201332.0,5.1,4.6,0.48,5.0,5.0,33.918975,-84.279019,33.918928,-84.278995,33.918966,-84.278982,"157
"
5284857,5201899.0,4.8,4.2,0.48,5.0,5.0,33.918975,-84.279019,33.918928,-84.278995,33.918966,-84.278982,"157
"
5285430,5202444.0,5.1,4.7,0.48,5.0,5.0,33.918975,-84.279019,33.918928,-84.278995,33.918966,-84.278982,"157
"
5286017,,5.2,,0.48,5.0,5.0,33.918975,-84.279019,33.918928,-84.278995,33.918966,-84.278982,"157
"
5286590,,4.9,,0.48,5.0,5.0,33.918975,-84.279019,33.918928,-84.278995,33.918966,-84.278982,"157
"
5287162,,5.0,,0.48,5.0,5.0,33.918975,-84.279019,33.918928,-84.278995,33.918966,-84.278982,"157
"
5287732,,4.9,,0.48,5.0,5.0,33.918975,-84.279019,33.918928,-84.278995,33.918966,-84.278982,"157
"
5288287,,4.7,,0.48,5.0,5.0,33.918975,-84.279019,33.918928,-84.278995,33.918966,-84.278982,"157
"
