timestamp_pseudoHD,timestamp_DD,side_HD_pseudoHD,side_HD_DD,GT_side_pseudoHD_DD,GT_side_HD_DD,GT_side_HD_pseudoHD,HD_GT_lat,HD_GT_long,pseudoHD_GT_lat,pseudoHD_GT_long,DD_GT_lat,DD_GT_long,DD_prev_lat,DD_prev_long,HD_pseudoHD_GT_bearing,HD_DD_GT_bearing,angle_HD,angle_pseudoHD,angle_DD,Note
4569027,4657408,17.0,17.0,15.1,17.1,17.1,33.918953,-84.279078,33.919031,-84.278915,33.918893,-84.278903,33.91889,-84.278959,"60
","112
",52.73,63.63,63.63,
4570736,4657967,16.8,16.8,15.1,17.1,17.1,33.918953,-84.279078,33.919031,-84.278915,33.918893,-84.278903,33.91889,-84.278959,"60
","112
",53.41,63.29,63.29,
4571303,4658523,17.2,17.1,15.1,17.1,17.1,33.918953,-84.279078,33.919031,-84.278915,33.918893,-84.278903,33.91889,-84.278959,"60
","112
",52.24,63.54,64.22,
4571871,4659068,16.7,17.0,15.1,17.1,17.1,33.918953,-84.279078,33.919031,-84.278915,33.918893,-84.278903,33.91889,-84.278959,"60
","112
",53.23,64.4,62.37,
4572445,4659610,16.0,17.0,15.1,17.1,17.1,33.918953,-84.279078,33.919031,-84.278915,33.918893,-84.278903,33.91889,-84.278959,"60
","112
",54.36,66.2,59.44,
4573021,4660153,16.7,17.0,15.1,17.1,17.1,33.918953,-84.279078,33.919031,-84.278915,33.918893,-84.278903,33.91889,-84.278959,"60
","112
",53.23,64.4,62.37,
4573596,4660701,16.7,17.7,15.1,17.1,17.1,33.918953,-84.279078,33.919031,-84.278915,33.918893,-84.278903,33.91889,-84.278959,"60
","112
",51.97,67.43,60.6,
4574174,4661250,17.0,17.7,15.1,17.1,17.1,33.918953,-84.279078,33.919031,-84.278915,33.918893,-84.278903,33.91889,-84.278959,"60
","112
",51.54,66.62,61.84,
4574750,4661798,16.7,14.9,15.1,17.1,17.1,33.918953,-84.279078,33.919031,-84.278915,33.918893,-84.278903,33.91889,-84.278959,"60
","112
",56.75,55.61,67.65,
4575343,4662341,16.9,17.7,15.1,17.1,17.1,33.918953,-84.279078,33.919031,-84.278915,33.918893,-84.278903,33.91889,-84.278959,"60
","112
",51.69,66.89,61.42,
4575925,4662884,16.7,17.5,15.1,17.1,17.1,33.918953,-84.279078,33.919031,-84.278915,33.918893,-84.278903,33.91889,-84.278959,"60
","112
",52.34,66.56,61.11,
4576482,4663434,17.2,17.5,15.1,17.1,17.1,33.918953,-84.279078,33.919031,-84.278915,33.918893,-84.278903,33.91889,-84.278959,"60
","112
",51.58,65.23,63.18,
4577049,4663971,16.8,17.2,15.1,17.1,17.1,33.918953,-84.279078,33.919031,-84.278915,33.918893,-84.278903,33.91889,-84.278959,"60
","112
",52.72,65.0,62.28,
4577624,4664514,17.0,17.5,15.1,17.1,17.1,33.918953,-84.279078,33.919031,-84.278915,33.918893,-84.278903,33.91889,-84.278959,"60
","112
",51.89,65.76,62.35,
4578205,4665077,17.3,17.7,15.1,17.1,17.1,33.918953,-84.279078,33.919031,-84.278915,33.918893,-84.278903,33.91889,-84.278959,"60
","112
",51.1,65.82,63.08,
4578775,4665715,16.8,17.6,15.1,17.1,17.1,33.918953,-84.279078,33.919031,-84.278915,33.918893,-84.278903,33.91889,-84.278959,"60
","112
",52.01,66.72,61.27,
4579344,4666304,16.8,17.8,15.1,17.1,17.1,33.918953,-84.279078,33.919031,-84.278915,33.918893,-84.278903,33.91889,-84.278959,"60
","112
",51.65,67.59,60.76,
4579920,4666851,16.7,17.7,15.1,17.1,17.1,33.918953,-84.279078,33.919031,-84.278915,33.918893,-84.278903,33.91889,-84.278959,"60
","112
",51.97,67.43,60.6,
4580493,4667487,17.0,17.8,15.1,17.1,17.1,33.918953,-84.279078,33.919031,-84.278915,33.918893,-84.278903,33.91889,-84.278959,"60
","112
",51.37,67.05,61.58,
4581070,4668062,16.7,17.7,15.1,17.1,17.1,33.918953,-84.279078,33.919031,-84.278915,33.918893,-84.278903,33.91889,-84.278959,"60
","112
",51.97,67.43,60.6,
4581643,4668612,13.3,17.5,15.1,17.1,17.1,33.918953,-84.279078,33.919031,-84.278915,33.918893,-84.278903,33.91889,-84.278959,"60
","112
",56.76,75.78,47.45,
4582232,4669177,16.8,17.2,15.1,17.1,17.1,33.918953,-84.279078,33.919031,-84.278915,33.918893,-84.278903,33.91889,-84.278959,"60
","112
",52.72,65.0,62.28,
4582804,4669743,12.7,17.4,15.1,17.1,17.1,33.918953,-84.279078,33.919031,-84.278915,33.918893,-84.278903,33.91889,-84.278959,"60
","112
",57.72,76.96,45.32,
4583390,4670315,16.6,16.7,15.1,17.1,17.1,33.918953,-84.279078,33.919031,-84.278915,33.918893,-84.278903,33.91889,-84.278959,"60
","112
",53.93,63.37,62.7,
4583965,4670872,16.9,16.5,15.1,17.1,17.1,33.918953,-84.279078,33.919031,-84.278915,33.918893,-84.278903,33.91889,-84.278959,"60
","112
",53.74,61.78,64.48,
4584542,4671442,17.8,17.7,15.1,17.1,17.1,33.918953,-84.279078,33.919031,-84.278915,33.918893,-84.278903,33.91889,-84.278959,"60
","112
",50.34,64.48,65.17,
4585116,4671993,17.5,16.0,15.1,17.1,17.1,33.918953,-84.279078,33.919031,-84.278915,33.918893,-84.278903,33.91889,-84.278959,"60
","112
",53.35,58.23,68.42,
4585692,4672552,17.0,17.3,15.1,17.1,17.1,33.918953,-84.279078,33.919031,-84.278915,33.918893,-84.278903,33.91889,-84.278959,"60
","112
",52.23,64.91,62.86,
4586269,4673125,37.5,17.2,15.1,17.1,17.1,33.918953,-84.279078,33.919031,-84.278915,33.918893,-84.278903,33.91889,-84.278959,"60
","112
",,,,Invalid triangle
4586844,4673691,35.3,16.4,15.1,17.1,17.1,33.918953,-84.279078,33.919031,-84.278915,33.918893,-84.278903,33.91889,-84.278959,"60
","112
",,,,Invalid triangle
4587418,4674270,16.8,17.7,15.1,17.1,17.1,33.918953,-84.279078,33.919031,-84.278915,33.918893,-84.278903,33.91889,-84.278959,"60
","112
",51.83,67.16,61.01,
4587993,4674840,16.9,15.5,15.1,17.1,17.1,33.918953,-84.279078,33.919031,-84.278915,33.918893,-84.278903,33.91889,-84.278959,"60
","112
",55.35,57.61,67.03,
4588565,4675404,13.5,17.5,15.1,17.1,17.1,33.918953,-84.279078,33.919031,-84.278915,33.918893,-84.278903,33.91889,-84.278959,"60
","112
",56.54,75.22,48.24,
4589139,4675975,17.0,17.5,15.1,17.1,17.1,33.918953,-84.279078,33.919031,-84.278915,33.918893,-84.278903,33.91889,-84.278959,"60
","112
",51.89,65.76,62.35,
4589724,4676535,16.8,17.6,15.1,17.1,17.1,33.918953,-84.279078,33.919031,-84.278915,33.918893,-84.278903,33.91889,-84.278959,"60
","112
",52.01,66.72,61.27,
4590296,4677123,13.3,17.5,15.1,17.1,17.1,33.918953,-84.279078,33.919031,-84.278915,33.918893,-84.278903,33.91889,-84.278959,"60
","112
",56.76,75.78,47.45,
4590869,4677698,16.7,17.6,15.1,17.1,17.1,33.918953,-84.279078,33.919031,-84.278915,33.918893,-84.278903,33.91889,-84.278959,"60
","112
",52.16,66.99,60.85,
4591447,4678270,16.6,17.5,15.1,17.1,17.1,33.918953,-84.279078,33.919031,-84.278915,33.918893,-84.278903,33.91889,-84.278959,"60
","112
",52.49,66.82,60.69,
4592026,4678843,16.9,16.4,15.1,17.1,17.1,33.918953,-84.279078,33.919031,-84.278915,33.918893,-84.278903,33.91889,-84.278959,"60
","112
",53.91,61.36,64.74,
4592601,4679413,34.7,17.4,15.1,17.1,17.1,33.918953,-84.279078,33.919031,-84.278915,33.918893,-84.278903,33.91889,-84.278959,"60
","112
",,,,Invalid triangle
4593181,4679982,34.5,17.4,15.1,17.1,17.1,33.918953,-84.279078,33.919031,-84.278915,33.918893,-84.278903,33.91889,-84.278959,"60
","112
",,,,Invalid triangle
4593747,4680550,33.4,17.5,15.1,17.1,17.1,33.918953,-84.279078,33.919031,-84.278915,33.918893,-84.278903,33.91889,-84.278959,"60
","112
",,,,Invalid triangle
4594331,4681113,37.8,17.5,15.1,17.1,17.1,33.918953,-84.279078,33.919031,-84.278915,33.918893,-84.278903,33.91889,-84.278959,"60
","112
",,,,Invalid triangle
4594905,4681687,35.0,14.2,15.1,17.1,17.1,33.918953,-84.279078,33.919031,-84.278915,33.918893,-84.278903,33.91889,-84.278959,"60
","112
",,,,Invalid triangle
4595483,4682261,17.1,14.2,15.1,17.1,17.1,33.918953,-84.279078,33.919031,-84.278915,33.918893,-84.278903,33.91889,-84.278959,"60
","112
",56.78,51.88,71.34,
4596056,4682825,36.9,17.5,15.1,17.1,17.1,33.918953,-84.279078,33.919031,-84.278915,33.918893,-84.278903,33.91889,-84.278959,"60
","112
",,,,Invalid triangle
4596609,4683394,14.9,17.6,15.1,17.1,17.1,33.918953,-84.279078,33.919031,-84.278915,33.918893,-84.278903,33.91889,-84.278959,"60
","112
",54.61,71.84,53.55,
4597193,4683966,26.5,17.5,15.1,17.1,17.1,33.918953,-84.279078,33.919031,-84.278915,33.918893,-84.278903,33.91889,-84.278959,"60
","112
",32.7,38.77,108.53,
4597765,4684537,23.2,17.6,15.1,17.1,17.1,33.918953,-84.279078,33.919031,-84.278915,33.918893,-84.278903,33.91889,-84.278959,"60
","112
",40.61,49.34,90.05,
4598342,4685110,17.6,12.7,15.1,17.1,17.1,33.918953,-84.279078,33.919031,-84.278915,33.918893,-84.278903,33.91889,-84.278959,"60
","112
",57.07,44.9,78.03,
4598912,4685671,17.2,17.5,15.1,17.1,17.1,33.918953,-84.279078,33.919031,-84.278915,33.918893,-84.278903,33.91889,-84.278959,"60
","112
",51.58,65.23,63.18,
4599489,4686251,16.9,17.4,15.1,17.1,17.1,33.918953,-84.279078,33.919031,-84.278915,33.918893,-84.278903,33.91889,-84.278959,"60
","112
",52.21,65.6,62.19,
4600068,4686824,16.7,17.3,15.1,17.1,17.1,33.918953,-84.279078,33.919031,-84.278915,33.918893,-84.278903,33.91889,-84.278959,"60
","112
",52.7,65.69,61.61,
4600643,4687396,14.9,17.3,15.1,17.1,17.1,33.918953,-84.279078,33.919031,-84.278915,33.918893,-84.278903,33.91889,-84.278959,"60
","112
",55.33,70.43,54.24,
4601217,4687970,17.1,17.5,15.1,17.1,17.1,33.918953,-84.279078,33.919031,-84.278915,33.918893,-84.278903,33.91889,-84.278959,"60
","112
",51.74,65.5,62.77,
4601787,4688544,16.8,14.4,15.1,17.1,17.1,33.918953,-84.279078,33.919031,-84.278915,33.918893,-84.278903,33.91889,-84.278959,"60
","112
",57.27,53.35,69.38,
4602356,4689116,17.1,17.3,15.1,17.1,17.1,33.918953,-84.279078,33.919031,-84.278915,33.918893,-84.278903,33.91889,-84.278959,"60
","112
",52.07,64.65,63.28,
4602931,4689669,16.9,17.2,15.1,17.1,17.1,33.918953,-84.279078,33.919031,-84.278915,33.918893,-84.278903,33.91889,-84.278959,"60
","112
",52.56,64.74,62.7,
