image,xmin,ymin,xmax,ymax,label,est_dist_x_mm,est_dist_y_mm,est_angle_btwn_boun_box_cam,est_bearing_btwn_cam_obj
1641594572935039293.jpg,985.6474453,687.0641447,1039.309494,729.6957237,10,6910.246794211551,8690.729001616386,2.8587332026729504,3.9261205362945164
1641594575382999873.jpg,985.6474453,683.9062982,1047.201083,729.6957237,10,6024.306829878881,8091.376905351216,3.2786834156646654,3.926188492294347
1641594571777339677.jpg,976.1776549,682.3273026,1042.466188,738.9473684,10,5593.99918294465,6543.607725726109,3.5306040849881226,3.93851812531994
1641594571777339677.jpg,976.1776549,682.3273026,1042.466188,738.9473684,10,5593.99918294465,6543.607725726109,3.5306040849881226,3.93851812531994
1641594574165040894.jpg,985.6474453,682.3273026,1036.152946,731.2747192,10,7342.130953272585,7569.337173149196,2.6915855335537264,3.9309345774429305
1641594576529589972.jpg,980.1233046,679.7368421,1044.04439,732.8536425,10,5801.184345971694,6975.184823067771,3.4061254469607514,3.9270644390822866
1641594638827467309.jpg,928.828703,540.2220395,1006.165228,603.3799824,7,4794.8624534138335,5866.237609838306,4.177957510274288,5.032132637209143
1641594637599947897.jpg,859.3834772,644.4325658,952.5031789,713.9062741,5,3982.164818296451,5332.945499326398,4.969584266836132,351.5986160149359
